^C:\USERS\DIEGO\GIT\7SEMESTRE\CC7-LABORATORIOS\LAB11 - OPENMP\CONSOLEAPPLICATION1\CONSOLEAPPLICATION1\RELEASE\CONSOLEAPPLICATION1.OBJ|C:\USERS\DIEGO\GIT\7SEMESTRE\CC7-LABORATORIOS\LAB11 - OPENMP\CONSOLEAPPLICATION1\CONSOLEAPPLICATION1\RELEASE\STDAFX.OBJ
C:\USERS\DIEGO\GIT\7SEMESTRE\CC7-LABORATORIOS\LAB11 - OPENMP\CONSOLEAPPLICATION1\RELEASE\CONSOLEAPPLICATION1.EXE
C:\USERS\DIEGO\GIT\7SEMESTRE\CC7-LABORATORIOS\LAB11 - OPENMP\CONSOLEAPPLICATION1\RELEASE\CONSOLEAPPLICATION1.PDB
